## Interface: 40300
## Title: Lib: MapData-1.0
## Notes: Static library of wow map data
## Version: 1.0.99
## Author: kagaro
## X-Category: Library
## X-Curse-Packaged-Version: 0.21-release
## X-Curse-Project-Name: LibMapData-1.0
## X-Curse-Project-ID: libmapdata-1-0
## X-Curse-Repository-ID: wow/libmapdata-1-0/mainline

library.lua
Libs/LibStub/LibStub.lua
Libs/CallbackHandler-1.0/CallbackHandler-1.0.xml
