## Interface: 50100
## Title: QuestHelper Data (enUS)
## Author: zorbathut, smariot, vipersniper, nesher, nconantj
## Notes: Contains the data needed by QuestHelper
## Version: 4.0.1.$svnversion$
## Dependencies: QHData-base
## LoadOnDemand: 1

static_enUS.lua
static_enUS_1.lua
static_enUS_2.lua
